C00000059|09302017|30|62|3318
C00002766|09082017|23|61|3555
C00002766|09112017|25|122|2713
C00002766|09122017|25|73|2182
C00002766|09152017|28|67|2191
C00002766|09182017|25|202|6039
C00002766|09192017|25|5|125
C00002766|09212017|25|35|933
C00002766|09222017|25|28|678
C00002766|09252017|23|33|598
C00002766|09272017|25|35|1186
C00002766|09282017|25|18|455
C00002766|09292017|5|13|65
C00005785|09212017|250|1|250
C00010421|09102017|46|20|1539
C00010421|09112017|66|4|350
C00010421|09122017|50|3|183
C00010421|09132017|208|1|208
C00010421|09142017|50|9|550
C00010421|09152017|50|9|689
C00010421|09162017|83|1|83
C00010421|09182017|83|13|1032
C00010421|09192017|41|3|154
C00010421|09202017|38|2|75
C00010421|09212017|46|6|480
C00010421|09242017|41|5|248
C00010421|09252017|210|1|210
C00010421|09262017|42|2|85
C00010421|09272017|50|3|298
C00010421|09282017|44|6|304
C00010421|09292017|70|2|141
C00010421|09302017|125|4|499
C00027359|09202017|68|42|3327
C00034678|09202017|500|1|500
C00034678|09282017|100|3|450
C00034678|09292017|83|5|385
C00039305|09102017|208|1|208
C00039305|09112017|6200|1|6200
C00039305|09152017|20|92|3470
C00039305|09272017|83|1|83
C00039305|09282017|100|1|100
C00039305|09292017|20|93|3509
C00039321|09082017|22|100|4375
C00039321|09092017|42|7|359
C00039321|09222017|22|100|4375
C00039578|09082017|250|127|50544
C00039578|09142017|1000|8|6750
C00039578|09152017|300|119|57206
C00039578|09182017|500|30|21593
C00039578|09202017|500|13|5150
C00039578|09212017|500|36|26116
C00039578|09222017|275|55|24827
C00039578|09252017|450|26|13416
C00039578|09272017|300|18|9600
C00039578|09282017|500|3|2500
C00039578|09292017|50|20|4563
C00042069|09122017|25|2|50
C00042069|09152017|25|233|11314
C00042069|09262017|300|7|2415
C00042069|09292017|25|234|11319
C00080515|09082017|9|44|858
C00080515|09152017|21|164|6067
C00080515|09222017|9|44|858
C00080515|09292017|21|164|6057
C00084954|09082017|84|1|84
C00084954|09112017|100|3|7650
C00084954|09132017|84|2|168
C00084954|09142017|84|2|167
C00084954|09152017|84|1|84
C00084954|09162017|84|2|168
C00084954|09172017|84|1|84
C00084954|09182017|84|7|1504
C00084954|09192017|300|4|1200
C00084954|09212017|5500|2|11000
C00084954|09222017|84|1|84
C00084954|09262017|500|3|1584
C00084954|09272017|84|4|336
C00084954|09292017|1000|3|2084
C00084954|09302017|250|1|250
C00090209|09302017|38|4|150
C00097568|09302017|46|1876|113587
C00101105|09082017|600|1|600
C00101105|09112017|250|10|2350
C00101105|09122017|250|9|2050
C00101105|09132017|300|2|600
C00101105|09142017|250|7|1600
C00101105|09152017|250|7|1400
C00101105|09182017|108|4|548
C00101105|09192017|200|14|3375
C00101105|09202017|250|7|2600
C00101105|09212017|200|6|1250
C00101105|09222017|820|1|820
C00101105|09252017|84|8|1539
C00101105|09262017|150|19|4050
C00101105|09272017|275|5|1150
C00101105|09282017|750|3|2250
C00101105|09292017|338|10|3450
C00127621|09192017|35|2|70
C00127621|09272017|20|2|40
C00127621|09292017|32|14|540
C00135558|09082017|250|2|500
C00135558|09102017|100|3|450
C00135558|09112017|700|2|1400
C00135558|09132017|250|3|535
C00135558|09142017|100|3|250
C00135558|09152017|150|2|300
C00135558|09162017|42|2|85
C00135558|09172017|100|1|100
C00135558|09182017|1075|2|2150
C00135558|09192017|575|4|2250
C00135558|09212017|100|3|400
C00135558|09222017|250|4|1150
C00135558|09232017|325|2|650
C00135558|09242017|50|1|50
C00135558|09252017|250|3|750
C00135558|09262017|68|2|135
C00135558|09272017|175|2|350
C00135558|09282017|100|5|1335
C00135558|09302017|500|1|500
C00141812|09112017|135|2|270
C00141812|09152017|20|1|20
C00141812|09182017|250|8|2065
C00141812|09252017|50|1|50
C00141812|09282017|1000|1|1000
C00145037|09302017|60|60|5440
C00148031|09142017|25|26|905
C00148031|09212017|5000|1|5000
C00148031|09282017|25|27|915
C00148031|09292017|50|609|52945
C00164145|09212017|30|923|36104
C00196725|09142017|1000|1|1000
C00196725|09152017|20|103|5312
C00196725|09302017|20|101|5230
C00196774|09092017|10|1|10
C00196774|09152017|400|4|1550
C00196774|09172017|10|1|10
C00196774|09182017|500|28|22905
C00196774|09192017|1600|2|3200
C00196774|09212017|25|1|25
C00196774|09222017|15|1|15
C00196774|09232017|250|1|250
C00196774|09242017|10|1|10
C00196774|09252017|750|6|5505
C00196774|09262017|2702|2|5405
C00196774|09272017|100|3|355
C00196774|09282017|255|4|3220
C00196774|09292017|1000|32|37350
C00196774|09302017|1000|7|4700
C00207258|09122017|625|2|1250
C00207258|09152017|20|4|155
C00207258|09292017|78|24|2744
C00208991|09142017|25|24|680
C00208991|09202017|25|16|828
C00208991|09252017|25|1|25
C00208991|09262017|25|18|2585
C00208991|09272017|40|1|40
C00214148|09152017|1000|5|6710
C00214148|09202017|300|1|300
C00214148|09212017|250|1|250
C00214148|09272017|225|1|225
C00247569|09122017|42|1|42
C00247569|09142017|1000|1|1000
C00247569|09252017|100|1|100
C00247569|09302017|178|12|2503
C00254953|09292017|141|145|24999
C00264689|10022017|35|2|70
C00264689|10102017|130|2|260
C00264689|10182017|20|5|190
C00279216|09152017|46|308|20289
C00279216|09292017|46|316|20638
C00281162|09152017|38|141|5007
C00281162|09292017|38|148|5336
C00329896|09082017|12|4|75
C00329896|09092017|10|1|10
C00329896|09102017|48|2|95
C00329896|09112017|60|8|3126
C00329896|09122017|1000|2|2000
C00329896|09172017|10|2|20
C00329896|09182017|50|1|50
C00329896|09202017|10|2|20
C00329896|09222017|10|1|10
C00329896|09232017|10|1|10
C00329896|09242017|5|5|40
C00329896|09252017|10|2|20
C00329896|09262017|8|1|8
C00329896|09272017|10|1|10
C00329896|09282017|8|4|30
C00329896|09292017|10|1|10
C00329896|09302017|160|1|160
C00338087|09082017|17|4|63
C00338087|09152017|38|329|14217
C00338087|09212017|1000|1|1000
C00338087|09222017|17|6|1068
C00338087|09292017|38|291|12692
C00384529|09192017|500|1|500
C00384529|09262017|750|4|3000
C00384529|09282017|500|1|500
C00388470|09202017|500|6|3200
C00388470|09272017|500|1|500
C00406041|09102017|30|1|30
C00406041|09112017|15|1|15
C00406041|09122017|10|2|19
C00406041|09162017|15|1|15
C00406041|09172017|15|1|15
C00406041|09182017|15|1|15
C00406041|09192017|4|1|4
C00406041|09212017|14|2|29
C00406041|09222017|15|1|15
C00406041|09232017|25|1|25
C00406041|09242017|15|1|15
C00406041|09252017|15|1|15
C00406041|09262017|15|1|15
C00406041|09282017|22|6|300
C00406041|09302017|250|4|1225
C00420760|09082017|138|2|275
C00420760|09102017|500|1|500
C00420760|09112017|1200|4|5100
C00420760|09132017|100|1|100
C00420760|09142017|500|1|500
C00420760|09182017|1000|21|32675
C00420760|09192017|1000|7|5250
C00420760|09212017|500|1|500
C00420760|09232017|50|1|50
C00420760|09252017|2700|1|2700
C00420760|09262017|1000|1|1000
C00420760|09272017|550|6|4950
C00420760|09292017|275|4|1075
C00420760|09302017|1000|5|4000
C00432252|09302017|50|227|20809
C00455733|09302017|48|13|806
C00467167|09082017|50|10|643
C00467167|09262017|50|10|643
C00467381|09302017|576|13|15429
C00475582|09152017|1300|1|1300
C00475582|09162017|300|1|300
C00475582|09222017|250|1|250
C00475582|09252017|250|8|2400
C00475582|09272017|500|5|2900
C00476317|09162017|25|1|25
C00479980|09082017|25|1|25
C00479980|09132017|75|1|75
C00479980|09142017|300|1|300
C00479980|09182017|35|1|35
C00479980|09252017|500|1|500
C00480673|09292017|75|4|285
C00491951|09302017|208|31|7603
C00543835|09222017|100|15|2646
C00543835|09292017|117|2|234
C00545947|09082017|25|9|700
C00545947|09092017|50|8|425
C00545947|09102017|50|9|950
C00545947|09112017|50|9|5525
C00545947|09122017|28|14|50930
C00545947|09132017|1000|28|65874
C00545947|09142017|30|20|4525
C00545947|09152017|25|17|16220
C00545947|09162017|25|16|875
C00545947|09172017|25|18|795
C00545947|09182017|750|56|105380
C00545947|09192017|100|53|15213
C00545947|09202017|225|21|17775
C00545947|09212017|250|63|307840
C00545947|09222017|50|22|106590
C00545947|09232017|25|11|420
C00545947|09242017|40|12|1245
C00545947|09252017|50|35|21110
C00545947|09262017|38|34|102007
C00545947|09272017|50|37|16972
C00545947|09282017|175|76|193175
C00545947|09292017|50|45|18520
C00545947|09302017|64|116|320638
C00548289|09112017|500|8|8135
C00548289|09122017|500|5|4700
C00548289|09132017|2700|3|2700
C00548289|09142017|750|1|750
C00548289|09152017|1500|12|17950
C00548289|09202017|500|9|4000
C00548289|09212017|1000|2|2000
C00548289|09222017|275|8|6950
C00548289|09232017|1000|1|1000
C00548289|09252017|1750|8|13100
C00548289|09262017|2700|1|2700
C00548289|09272017|2350|6|10600
C00548289|09282017|275|2|550
C00548289|09292017|2400|34|54350
C00548289|09302017|1000|15|20250
C00559146|09082017|5000|2|10000
C00570994|09222017|17|1|17
C00570994|09292017|1375|2|2750
C00570994|09302017|125|2|250
C00586768|09212017|100|1|100
C00624817|09252017|500000|1|500000
C00626507|09262017|1000|7|9000
C00626507|09272017|1000|3|3000
C00626507|09282017|1000|1|1000
C00630210|11032017|500|1|500
C00632968|09192017|650|1|650
C00647859|09202017|300|1|300